// Jest Snapshot v1, https://goo.gl/fbAQLP

exports[`New Company form should render a valid form 1`] = `
<Page
  maxWidth={500}
>
  <Card>
    <Form
      buttons={Array []}
      fields={Array []}
      form="newCompany"
      handleSubmit={[Function]}
      isLoading={false}
    >
      <Component />
    </Form>
  </Card>
</Page>
`;
