// Jest Snapshot v1, https://goo.gl/fbAQLP

exports[`LoginForm Should render a valid LoginForm view 1`] = `
<Form
  buttons={Array []}
  fields={Array []}
  form="login"
  handleSubmit={[Function]}
  isLoading={false}
>
  <Component />
</Form>
`;
