// Jest Snapshot v1, https://goo.gl/fbAQLP

exports[`Company Settings view should render a valid Company settings screen 1`] = `
<Page
  isCentered={true}
  maxWidth={940}
>
  <FormSelector />
</Page>
`;
