// Jest Snapshot v1, https://goo.gl/fbAQLP

exports[`RouteAuth should redirect when no user is logged 1`] = `
<Route
  path="/auth-url"
  render={[Function]}
/>
`;

exports[`RouteAuth should render component when user is logged 1`] = `
<Route
  path="/auth-url"
  render={[Function]}
/>
`;
