// Jest Snapshot v1, https://goo.gl/fbAQLP

exports[`Field should render a valid button field 1`] = `
<span
  key="button-field"
  style={
    Object {
      "display": "block",
      "maxWidth": undefined,
      "verticalAlign": "top",
    }
  }
>
  <Field
    id="button-field"
    name="button-field"
  >
    <Component />
  </Field>
</span>
`;

exports[`Field should render a valid checkbox field 1`] = `
<span
  key="checkbox-field"
  style={
    Object {
      "display": "block",
      "maxWidth": undefined,
      "verticalAlign": "top",
    }
  }
>
  <Field
    id="checkbox-field"
    name="checkbox-field"
  >
    <Component />
  </Field>
</span>
`;

exports[`Field should render a valid date field 1`] = `
<span
  key="date-field"
  style={
    Object {
      "display": "block",
      "maxWidth": undefined,
      "verticalAlign": "top",
    }
  }
>
  <Field
    id="date-field"
    name="date-field"
  >
    <Component />
  </Field>
</span>
`;

exports[`Field should render a valid dropdown field 1`] = `
<span
  key="dropdown-field"
  style={
    Object {
      "display": "block",
      "maxWidth": undefined,
      "verticalAlign": "top",
    }
  }
>
  <Field
    id="dropdown-field"
    name="dropdown-field"
  >
    <Component />
  </Field>
</span>
`;

exports[`Field should render a valid password field 1`] = `
<span
  key="password-field"
  style={
    Object {
      "display": "block",
      "maxWidth": undefined,
      "verticalAlign": "top",
    }
  }
>
  <Field
    id="password-field"
    name="password-field"
  >
    <Component />
  </Field>
</span>
`;

exports[`Field should render a valid picture field 1`] = `
<span
  key="picture-field"
  style={
    Object {
      "display": "block",
      "maxWidth": undefined,
      "verticalAlign": "top",
    }
  }
>
  <Field
    id="picture-field"
    name="picture-field"
  >
    <Component />
  </Field>
</span>
`;

exports[`Field should render a valid submit field 1`] = `
<span
  key="submit-field"
  style={
    Object {
      "display": "block",
      "maxWidth": undefined,
      "verticalAlign": "top",
    }
  }
>
  <Field
    id="submit-field"
    name="submit-field"
  >
    <Component />
  </Field>
</span>
`;

exports[`Field should render a valid switch field 1`] = `
<span
  key="switch-field"
  style={
    Object {
      "display": "block",
      "maxWidth": undefined,
      "verticalAlign": "top",
    }
  }
>
  <Field
    id="switch-field"
    name="switch-field"
  >
    <Component />
  </Field>
</span>
`;

exports[`Field should render a valid text field 1`] = `
<span
  key="text-field"
  style={
    Object {
      "display": "block",
      "maxWidth": undefined,
      "verticalAlign": "top",
    }
  }
>
  <Field
    id="text-field"
    name="text-field"
  >
    <Component />
  </Field>
</span>
`;

exports[`Field should render a valid textarea field 1`] = `
<span
  key="textarea-field"
  style={
    Object {
      "display": "block",
      "maxWidth": undefined,
      "verticalAlign": "top",
    }
  }
>
  <Field
    id="textarea-field"
    name="textarea-field"
  >
    <Component />
  </Field>
</span>
`;
