// Jest Snapshot v1, https://goo.gl/fbAQLP

exports[`PermissionMessage should render a valid component with permissions 1`] = `""`;

exports[`PermissionMessage should render a valid component without permissions 1`] = `
<Message
  type="warning"
>
  <MessageText>
    You cannot purchase a plan
     for:
  </MessageText>
  <MessageText>
    <Content
      options={
        Object {
          "icon": <Avatar
            profile={
              Object {
                "name": "Company test",
                "picture": "",
              }
            }
            size="xs"
          />,
          "label": "Company test",
        }
      }
    />
  </MessageText>
</Message>
`;
