// Jest Snapshot v1, https://goo.gl/fbAQLP

exports[`Role Form Should render a valid screen 1`] = `
<Form
  buttons={Array []}
  fields={Array []}
  form="test"
  handleSubmit={[Function]}
  isLoading={false}
>
  <Component />
</Form>
`;
