// Jest Snapshot v1, https://goo.gl/fbAQLP

exports[`ResetEmail Should render a valid screen 1`] = `
<Page
  isCentered={true}
  maxWidth={500}
>
  <Card>
    <p>
      Setup your new email
    </p>
    <br />
    <ResetEmailForm />
  </Card>
</Page>
`;
