// Jest Snapshot v1, https://goo.gl/fbAQLP

exports[`Company should render a valid company card 1`] = `
<Card
  key="5"
>
  <PictureWrapper>
    <Avatar
      profile={
        Object {
          "name": "Company",
          "picture": "./picture.jpg",
        }
      }
    />
  </PictureWrapper>
  <Info>
    <Title>
      Company
    </Title>
    <Properties>
      <Property>
        <span>
          Users
        </span>
        : 
      </Property>
      <Property>
        <span>
          Joined
        </span>
        : 
      </Property>
    </Properties>
    <LinksWrapper>
      <Buttons
        align="center"
        options={
          Array [
            Object {
              "buttonType": "primary",
              "id": "company-5-dashboard",
              "isTransparent": true,
              "label": "Dashboard",
              "to": "/companies/company/activities",
              "type": "button",
            },
            Object {
              "buttonType": "primary",
              "id": "company-5-profile",
              "isTransparent": true,
              "label": "Profile",
              "to": "/companies/company",
              "type": "button",
            },
            Object {
              "buttonType": "primary",
              "id": "company-5-settings",
              "isTransparent": true,
              "label": "Settings",
              "to": "/companies/company/settings",
              "type": "button",
            },
          ]
        }
      />
    </LinksWrapper>
  </Info>
</Card>
`;

exports[`Company should render a valid company card without picture 1`] = `
<Card
  key="5"
>
  <PictureWrapper>
    <Avatar
      profile={
        Object {
          "name": "Company",
          "picture": "",
        }
      }
    />
  </PictureWrapper>
  <Info>
    <Title>
      Company
    </Title>
    <Properties>
      <Property>
        <span>
          Users
        </span>
        : 
      </Property>
      <Property>
        <span>
          Joined
        </span>
        : 
      </Property>
    </Properties>
    <LinksWrapper>
      <Buttons
        align="center"
        options={
          Array [
            Object {
              "buttonType": "primary",
              "id": "company-5-dashboard",
              "isTransparent": true,
              "label": "Dashboard",
              "to": "/companies/company/activities",
              "type": "button",
            },
            Object {
              "buttonType": "primary",
              "id": "company-5-profile",
              "isTransparent": true,
              "label": "Profile",
              "to": "/companies/company",
              "type": "button",
            },
            Object {
              "buttonType": "primary",
              "id": "company-5-settings",
              "isTransparent": true,
              "label": "Settings",
              "to": "/companies/company/settings",
              "type": "button",
            },
          ]
        }
      />
    </LinksWrapper>
  </Info>
</Card>
`;
