// Jest Snapshot v1, https://goo.gl/fbAQLP

exports[`Footer should render a valid footer 1`] = `
<Wrapper
  fixedSidebar={false}
>
  <Content
    maxWidth={1280}
  >
    <Text>
      Manapp
       
      v1
       © is a registered property of 
      ImperdibleSoft
       ©
       
      2020
      <span
        key="0"
      >
         - 
        <Link
          options={
            Object {
              "id": "inline",
            }
          }
        />
      </span>
    </Text>
    <List>
      <ListHead>
        Useful links
      </ListHead>
      <ListElement
        key="0"
      >
        <Link
          options={
            Object {
              "id": "useful",
            }
          }
        />
      </ListElement>
    </List>
    <List>
      <ListHead>
        Legal
      </ListHead>
      <ListElement
        key="0"
      >
        <Link
          options={
            Object {
              "id": "legal",
            }
          }
        />
      </ListElement>
    </List>
  </Content>
</Wrapper>
`;
