// Jest Snapshot v1, https://goo.gl/fbAQLP

exports[`Card should render correctly a populated card 1`] = `
<div
  className="card__Card-sc-1hrkoho-0 euOOPl"
>
  <p>
    test
  </p>
</div>
`;

exports[`Card should render correctly an empty card 1`] = `
<div
  className="card__Card-sc-1hrkoho-0 euOOPl"
/>
`;
