// Jest Snapshot v1, https://goo.gl/fbAQLP

exports[`Cookies should render a valid embed section 1`] = `
<Fragment>
  <p>
    We need to store some data from your 
    test
     account in order to connect it to your Manapp account.
  </p>
  <Spacer
    size="sm"
  />
  <p>
    If you connect your 
    test
     account, the only information that will be stored is:
  </p>
  <List>
    <Component />
  </List>
  <p>
    If you didn
    '
    t have a Manapp account and you login with your 
    test
     account, we will also store:
  </p>
  <List>
    <Component />
  </List>
</Fragment>
`;
